<svg width="36px" height="36px" viewBox="0 0 36 36" version="1.1" xmlns="http://www.w3.org/2000/svg" xmlns:xlink="http://www.w3.org/1999/xlink">
    <!-- Generator: Sketch 50.2 (55047) - http://www.bohemiancoding.com/sketch -->
    <title>avatar small</title>
    <desc>Created with Sketch.</desc>
    <defs></defs>
    <g id="Web-UI" stroke="none" stroke-width="1" fill="none" fill-rule="evenodd">
        <g id="Landing" transform="translate(-1243.000000, -18.000000)">
            <g id="Header-Bar">
                <g id="Right-Menu" transform="translate(957.000000, 18.000000)">
                    <g id="icon-container-filled-with-arrow" transform="translate(286.000000, 0.000000)">
                        <g id="avatar-x-small">
                            <g id="image-circle-x-small">
                                <rect id="bkgd" fill="#62B7ED" x="0" y="0" width="36" height="36" rx="18"></rect>
                                <g id="avatar" transform="translate(10.500000, 10.500000)" fill="#FFFFFF">
                                    <path d="M15,12.8 L15,13.5 C15,14.325 14.325,15 13.5,15 L1.5,15 C0.675,15 0,14.325 0,13.5 L0,12.8 C0,10.975 2.125,9.875 4.125,9 C4.2,8.975 4.25,8.95 4.325,8.9 C4.475,8.825 4.65,8.825 4.8,8.925 C5.6,9.45 6.525,9.75 7.5,9.75 C8.475,9.75 9.4,9.45 10.2,8.95 C10.35,8.85 10.525,8.85 10.675,8.925 C10.75,8.95 10.8,8.975 10.875,9.025 C12.875,9.875 15,10.975 15,12.8" id="Fill-1"></path>
                                    <path d="M7.5,0 C9.55725,0 11.225,1.84675 11.225,4.125 C11.225,6.40325 9.55725,8.25 7.5,8.25 C5.44275,8.25 3.775,6.40325 3.775,4.125 C3.775,1.84675 5.44275,0 7.5,0" id="Fill-3"></path>
                                </g>
                            </g>
                        </g>
                    </g>
                </g>
            </g>
        </g>
    </g>
</svg>